…
# grdash: House Price Indices for Greece

<!-- badges: start -->
<!-- badges: end -->

Get the data from Bank of Greece website, which can be accessed through
[here](https://www.bankofgreece.gr/en/statistics/real-estate-market/residential-and-commercial-property-price-indices-and-other-short-term-indices).
The file `analysis.R` contains the recessary data manipulation in order
to bring our data in tidy format.

``` r
source("analysis.R")
prices <- get_hp()
prices
#> # A tibble: 518 x 4
#>    date       name  value  base
#>    <date>     <fct> <dbl> <dbl>
#>  1 1997-01-01 Urban  96.2  1997
#>  2 1997-04-01 Urban  98.2  1997
#>  3 1997-07-01 Urban 100.   1997
#>  4 1997-10-01 Urban 105.   1997
#>  5 1998-01-01 Urban 110.   1997
#>  6 1998-04-01 Urban 114.   1997
#>  7 1998-07-01 Urban 115.   1997
#>  8 1998-10-01 Urban 118.   1997
#>  9 1999-01-01 Urban 120.   1997
#> 10 1999-04-01 Urban 124.   1997
#> # ... with 508 more rows
```
…
